{
"_class":"document",
"do_objectID":"79077DC0-E535-4CD6-9585-63F0D713AD98",
"colorSpace":1,
"currentPageIndex":0,
"assets":{
"_class":"assetCollection",
"do_objectID":"D98D1B2C-276E-42EA-99DC-406D97086784",
"images":[],
"colorAssets":[],
"exportPresets":[],
"gradientAssets":[],
"imageCollection":{
"_class":"imageCollection",
"images":{}
},
"colors":[],
"gradients":[]
},
"foreignLayerStyles":[],
"foreignSymbols":[
{
"_class":"MSImmutableForeignSymbol",
"do_objectID":"C514D927-A4D9-47BC-B43E-449CE21FEEC0",
"libraryID":"AA606951-2B48-4E8C-A063-9AE0903674A9",
"sourceLibraryName":"国科",
"symbolPrivate":false,
"originalMaster":{
"_class":"symbolMaster",
"do_objectID":"723A037C-6971-4B20-B729-5198475D4736",
"booleanOperation":-1,
"isFixedToViewport":false,
"isFlippedHorizontal":false,
"isFlippedVertical":false,
"isLocked":false,
"isVisible":true,
"layerListExpandedType":0,
"name":"文字按钮/红色",
"nameIsFixed":false,
"resizingConstraint":63,
"resizingType":0,
"rotation":0,
"shouldBreakMaskChain":true,
"exportOptions":{
"_class":"exportOptions",
"includedLayerIds":[],
"layerOptions":0,
"shouldTrim":false,
"exportFormats":[]
},
"frame":{
"_class":"rect",
"constrainProportions":false,
"height":20,
"width":28,
"x":2621,
"y":-172
},
"clippingMaskMode":0,
"hasClippingMask":false,
"style":{
"_class":"style",
"do_objectID":"B60DBC5D-5D24-4F37-AFFE-4510F2D37E2A",
"endMarkerType":0,
"miterLimit":10,
"startMarkerType":0,
"windingRule":1,
"blur":{
"_class":"blur",
"isEnabled":false,
"center":"{0.5, 0.5}",
"motionAngle":0,
"radius":10,
"saturation":1,
"type":0
},
"borderOptions":{
"_class":"borderOptions",
"isEnabled":true,
"dashPattern":[],
"lineCapStyle":0,
"lineJoinStyle":0
},
"borders":[],
"colorControls":{
"_class":"colorControls",
"isEnabled":false,
"brightness":0,
"contrast":1,
"hue":0,
"saturation":1
},
"contextSettings":{
"_class":"graphicsContextSettings",
"blendMode":0,
"opacity":1
},
"fills":[],
"innerShadows":[],
"shadows":[]
},
"hasClickThrough":true,
"groupLayout":{
"_class":"MSImmutableFreeformGroupLayout"
},
"layers":[
{
"_class":"text",
"do_objectID":"404E8288-9C58-47BC-A2C5-E252F71073BC",
"booleanOperation":0,
"isFixedToViewport":false,
"isFlippedHorizontal":false,
"isFlippedVertical":false,
"isLocked":false,
"isVisible":true,
"layerListExpandedType":0,
"name":"错误 error copy 3",
"nameIsFixed":false,
"resizingConstraint":47,
"resizingType":0,
"rotation":0,
"shouldBreakMaskChain":false,
"exportOptions":{
"_class":"exportOptions",
"includedLayerIds":[],
"layerOptions":0,
"shouldTrim":false,
"exportFormats":[]
},
"frame":{
"_class":"rect",
"constrainProportions":false,
"height":20,
"width":28,
"x":0,
"y":0
},
"clippingMaskMode":0,
"hasClippingMask":false,
"style":{
"_class":"style",
"do_objectID":"95494287-C23D-4C77-B36B-7EF48EDB2975",
"endMarkerType":0,
"miterLimit":10,
"startMarkerType":0,
"windingRule":1,
"blur":{
"_class":"blur",
"isEnabled":false,
"center":"{0.5, 0.5}",
"motionAngle":0,
"radius":10,
"saturation":1,
"type":0
},
"borderOptions":{
"_class":"borderOptions",
"isEnabled":true,
"dashPattern":[],
"lineCapStyle":0,
"lineJoinStyle":0
},
"borders":[],
"colorControls":{
"_class":"colorControls",
"isEnabled":false,
"brightness":0,
"contrast":1,
"hue":0,
"saturation":1
},
"contextSettings":{
"_class":"graphicsContextSettings",
"blendMode":0,
"opacity":1
},
"fills":[],
"innerShadows":[],
"shadows":[],
"textStyle":{
"_class":"textStyle",
"encodedAttributes":{
"MSAttributedStringFontAttribute":{
"_class":"fontDescriptor",
"attributes":{
"name":"PingFangSC-Regular",
"size":14
}
},
"MSAttributedStringColorAttribute":{
"_class":"color",
"alpha":1,
"blue":0.3960784313725489,
"green":0.3254901960784314,
"red":0.8470588235294118
},
"textStyleVerticalAlignmentKey":0,
"paragraphStyle":{
"_class":"paragraphStyle",
"alignment":0,
"allowsDefaultTighteningForTruncation":0
}
},
"verticalAlignment":0
}
},
"attributedString":{
"_class":"attributedString",
"string":"删除",
"attributes":[
{
"_class":"stringAttribute",
"location":0,
"length":2,
"attributes":{
"MSAttributedStringFontAttribute":{
"_class":"fontDescriptor",
"attributes":{
"name":"PingFangSC-Regular",
"size":14
}
},
"MSAttributedStringColorAttribute":{
"_class":"color",
"alpha":1,
"blue":0.3960784313725489,
"green":0.3254901960784314,
"red":0.8470588235294118
},
"textStyleVerticalAlignmentKey":0,
"paragraphStyle":{
"_class":"paragraphStyle",
"alignment":0,
"allowsDefaultTighteningForTruncation":0
}
}
}
]
},
"automaticallyDrawOnUnderlyingPath":false,
"dontSynchroniseWithSymbol":false,
"glyphBounds":"{{0, 3}, {28, 14}}",
"lineSpacingBehaviour":2,
"textBehaviour":0
}
],
"hasBackgroundColor":false,
"includeBackgroundColorInExport":true,
"includeInCloudUpload":true,
"isFlowHome":false,
"presetDictionary":{},
"resizesContent":false,
"backgroundColor":{
"_class":"color",
"alpha":1,
"blue":1,
"green":1,
"red":1
},
"horizontalRulerData":{
"_class":"rulerData",
"base":0,
"guides":[]
},
"verticalRulerData":{
"_class":"rulerData",
"base":0,
"guides":[]
},
"includeBackgroundColorInInstance":false,
"symbolID":"003990B1-F2DA-40F9-8B50-B69E6A1F8A7D",
"changeIdentifier":21,
"overrideProperties":[
{
"_class":"MSImmutableOverrideProperty",
"canOverride":true,
"overrideName":"404E8288-9C58-47BC-A2C5-E252F71073BC_stringValue"
}
],
"allowsOverrides":true
},
"symbolMaster":{
"_class":"symbolMaster",
"do_objectID":"723A037C-6971-4B20-B729-5198475D4736",
"booleanOperation":-1,
"isFixedToViewport":false,
"isFlippedHorizontal":false,
"isFlippedVertical":false,
"isLocked":false,
"isVisible":true,
"layerListExpandedType":0,
"name":"文字按钮/红色",
"nameIsFixed":false,
"resizingConstraint":63,
"resizingType":0,
"rotation":0,
"shouldBreakMaskChain":true,
"exportOptions":{
"_class":"exportOptions",
"includedLayerIds":[],
"layerOptions":0,
"shouldTrim":false,
"exportFormats":[]
},
"frame":{
"_class":"rect",
"constrainProportions":false,
"height":20,
"width":28,
"x":2621,
"y":-172
},
"clippingMaskMode":0,
"hasClippingMask":false,
"style":{
"_class":"style",
"do_objectID":"C04854F3-280F-47B3-BAFB-84C42C205A11",
"endMarkerType":0,
"miterLimit":10,
"startMarkerType":0,
"windingRule":1,
"blur":{
"_class":"blur",
"isEnabled":false,
"center":"{0.5, 0.5}",
"motionAngle":0,
"radius":10,
"saturation":1,
"type":0
},
"borderOptions":{
"_class":"borderOptions",
"isEnabled":true,
"dashPattern":[],
"lineCapStyle":0,
"lineJoinStyle":0
},
"borders":[],
"colorControls":{
"_class":"colorControls",
"isEnabled":false,
"brightness":0,
"contrast":1,
"hue":0,
"saturation":1
},
"contextSettings":{
"_class":"graphicsContextSettings",
"blendMode":0,
"opacity":1
},
"fills":[],
"innerShadows":[],
"shadows":[]
},
"hasClickThrough":true,
"groupLayout":{
"_class":"MSImmutableFreeformGroupLayout"
},
"layers":[
{
"_class":"text",
"do_objectID":"404E8288-9C58-47BC-A2C5-E252F71073BC",
"booleanOperation":0,
"isFixedToViewport":false,
"isFlippedHorizontal":false,
"isFlippedVertical":false,
"isLocked":false,
"isVisible":true,
"layerListExpandedType":0,
"name":"错误 error copy 3",
"nameIsFixed":false,
"resizingConstraint":47,
"resizingType":0,
"rotation":0,
"shouldBreakMaskChain":false,
"exportOptions":{
"_class":"exportOptions",
"includedLayerIds":[],
"layerOptions":0,
"shouldTrim":false,
"exportFormats":[]
},
"frame":{
"_class":"rect",
"constrainProportions":false,
"height":20,
"width":28,
"x":0,
"y":0
},
"clippingMaskMode":0,
"hasClippingMask":false,
"style":{
"_class":"style",
"do_objectID":"95494287-C23D-4C77-B36B-7EF48EDB2975",
"endMarkerType":0,
"miterLimit":10,
"startMarkerType":0,
"windingRule":1,
"blur":{
"_class":"blur",
"isEnabled":false,
"center":"{0.5, 0.5}",
"motionAngle":0,
"radius":10,
"saturation":1,
"type":0
},
"borderOptions":{
"_class":"borderOptions",
"isEnabled":true,
"dashPattern":[],
"lineCapStyle":0,
"lineJoinStyle":0
},
"borders":[],
"colorControls":{
"_class":"colorControls",
"isEnabled":false,
"brightness":0,
"contrast":1,
"hue":0,
"saturation":1
},
"contextSettings":{
"_class":"graphicsContextSettings",
"blendMode":0,
"opacity":1
},
"fills":[],
"innerShadows":[],
"shadows":[],
"textStyle":{
"_class":"textStyle",
"encodedAttributes":{
"MSAttributedStringFontAttribute":{
"_class":"fontDescriptor",
"attributes":{
"name":"PingFangSC-Regular",
"size":14
}
},
"MSAttributedStringColorAttribute":{
"_class":"color",
"alpha":1,
"blue":0.3960784313725489,
"green":0.3254901960784314,
"red":0.8470588235294118
},
"textStyleVerticalAlignmentKey":0,
"paragraphStyle":{
"_class":"paragraphStyle",
"alignment":0,
"allowsDefaultTighteningForTruncation":0
}
},
"verticalAlignment":0
}
},
"attributedString":{
"_class":"attributedString",
"string":"删除",
"attributes":[
{
"_class":"stringAttribute",
"location":0,
"length":2,
"attributes":{
"MSAttributedStringFontAttribute":{
"_class":"fontDescriptor",
"attributes":{
"name":"PingFangSC-Regular",
"size":14
}
},
"MSAttributedStringColorAttribute":{
"_class":"color",
"alpha":1,
"blue":0.3960784313725489,
"green":0.3254901960784314,
"red":0.8470588235294118
},
"textStyleVerticalAlignmentKey":0,
"paragraphStyle":{
"_class":"paragraphStyle",
"alignment":0,
"allowsDefaultTighteningForTruncation":0
}
}
}
]
},
"automaticallyDrawOnUnderlyingPath":false,
"dontSynchroniseWithSymbol":false,
"glyphBounds":"{{0, 3}, {28, 14}}",
"lineSpacingBehaviour":2,
"textBehaviour":0
}
],
"hasBackgroundColor":false,
"includeBackgroundColorInExport":true,
"includeInCloudUpload":true,
"isFlowHome":false,
"presetDictionary":{},
"resizesContent":false,
"backgroundColor":{
"_class":"color",
"alpha":1,
"blue":1,
"green":1,
"red":1
},
"horizontalRulerData":{
"_class":"rulerData",
"base":0,
"guides":[]
},
"verticalRulerData":{
"_class":"rulerData",
"base":0,
"guides":[]
},
"includeBackgroundColorInInstance":false,
"symbolID":"FC56FCEC-A0A8-41A1-82DA-A288F053E8E4",
"changeIdentifier":22,
"overrideProperties":[
{
"_class":"MSImmutableOverrideProperty",
"canOverride":true,
"overrideName":"404E8288-9C58-47BC-A2C5-E252F71073BC_stringValue"
}
],
"allowsOverrides":true
}
}
],
"foreignTextStyles":[],
"layerStyles":{
"_class":"sharedStyleContainer",
"objects":[
{
"_class":"sharedStyle",
"do_objectID":"5474B523-5820-49CF-A12B-95230617E66C",
"name":"选择时间",
"value":{
"_class":"style",
"do_objectID":"3AE31976-5A68-4BD2-8C61-FF6D19EB6DE2",
"endMarkerType":0,
"miterLimit":10,
"startMarkerType":0,
"windingRule":1,
"blur":{
"_class":"blur",
"isEnabled":false,
"center":"{0.5, 0.5}",
"motionAngle":0,
"radius":10,
"saturation":1,
"type":0
},
"borderOptions":{
"_class":"borderOptions",
"isEnabled":true,
"dashPattern":[],
"lineCapStyle":0,
"lineJoinStyle":0
},
"borders":[],
"colorControls":{
"_class":"colorControls",
"isEnabled":false,
"brightness":0,
"contrast":1,
"hue":0,
"saturation":1
},
"contextSettings":{
"_class":"graphicsContextSettings",
"blendMode":0,
"opacity":1
},
"fills":[],
"innerShadows":[],
"shadows":[]
}
},
{
"_class":"sharedStyle",
"do_objectID":"FB841D0E-8A6D-438E-8B21-310B97FC5272",
"name":"WeChat Green",
"value":{
"_class":"style",
"do_objectID":"64C1654B-3036-4EFA-B54D-AD7643970E82",
"endMarkerType":0,
"miterLimit":10,
"startMarkerType":0,
"windingRule":1,
"blur":{
"_class":"blur",
"isEnabled":false,
"center":"{0.5, 0.5}",
"motionAngle":0,
"radius":1.959677419354838,
"saturation":1,
"type":0
},
"borderOptions":{
"_class":"borderOptions",
"isEnabled":true,
"dashPattern":[],
"lineCapStyle":0,
"lineJoinStyle":0
},
"borders":[
{
"_class":"border",
"isEnabled":false,
"fillType":0,
"color":{
"_class":"color",
"alpha":1,
"blue":0.592,
"green":0.592,
"red":0.592
},
"contextSettings":{
"_class":"graphicsContextSettings",
"blendMode":0,
"opacity":1
},
"gradient":{
"_class":"gradient",
"elipseLength":0,
"from":"{0.5, 0}",
"gradientType":0,
"to":"{0.5, 1}",
"stops":[
{
"_class":"gradientStop",
"position":0,
"color":{
"_class":"color",
"alpha":1,
"blue":1,
"green":1,
"red":1
}
},
{
"_class":"gradientStop",
"position":1,
"color":{
"_class":"color",
"alpha":1,
"blue":0,
"green":0,
"red":0
}
}
]
},
"position":0,
"thickness":1.6875
}
],
"colorControls":{
"_class":"colorControls",
"isEnabled":false,
"brightness":0,
"contrast":1,
"hue":0,
"saturation":1
},
"contextSettings":{
"_class":"graphicsContextSettings",
"blendMode":0,
"opacity":1
},
"fills":[
{
"_class":"fill",
"isEnabled":true,
"fillType":0,
"color":{
"_class":"color",
"alpha":1,
"blue":0.02745098039215689,
"green":0.7333333333333333,
"red":0.0352941176470588
},
"contextSettings":{
"_class":"graphicsContextSettings",
"blendMode":0,
"opacity":1
},
"gradient":{
"_class":"gradient",
"elipseLength":0,
"from":"{0.5, 0}",
"gradientType":0,
"to":"{0.5, 1}",
"stops":[
{
"_class":"gradientStop",
"position":0,
"color":{
"_class":"color",
"alpha":1,
"blue":1,
"green":1,
"red":1
}
},
{
"_class":"gradientStop",
"position":1,
"color":{
"_class":"color",
"alpha":1,
"blue":0,
"green":0,
"red":0
}
}
]
},
"noiseIndex":0,
"noiseIntensity":0,
"patternFillType":0,
"patternTileScale":1
}
],
"innerShadows":[],
"shadows":[]
}
},
{
"_class":"sharedStyle",
"do_objectID":"55639DFB-4E57-43EE-B8DB-25DBA170D0D8",
"name":"Sketch Measure / Spacing",
"value":{
"_class":"style",
"do_objectID":"E43BBC25-0082-4CCA-9315-501758EB739D",
"endMarkerType":0,
"miterLimit":10,
"startMarkerType":0,
"windingRule":1,
"blur":{
"_class":"blur",
"isEnabled":false,
"center":"{0.5, 0.5}",
"motionAngle":0,
"radius":10,
"saturation":1,
"type":0
},
"borderOptions":{
"_class":"borderOptions",
"isEnabled":true,
"dashPattern":[],
"lineCapStyle":0,
"lineJoinStyle":0
},
"borders":[],
"colorControls":{
"_class":"colorControls",
"isEnabled":false,
"brightness":0,
"contrast":1,
"hue":0,
"saturation":1
},
"contextSettings":{
"_class":"graphicsContextSettings",
"blendMode":0,
"opacity":1
},
"fills":[
{
"_class":"fill",
"isEnabled":true,
"fillType":0,
"color":{
"_class":"color",
"alpha":1,
"blue":0.760784,
"green":0.890196,
"red":0.313725
},
"contextSettings":{
"_class":"graphicsContextSettings",
"blendMode":0,
"opacity":1
},
"gradient":{
"_class":"gradient",
"elipseLength":0,
"from":"{0.5, 0}",
"gradientType":0,
"to":"{0.5, 1}",
"stops":[
{
"_class":"gradientStop",
"position":0,
"color":{
"_class":"color",
"alpha":1,
"blue":1,
"green":1,
"red":1
}
},
{
"_class":"gradientStop",
"position":1,
"color":{
"_class":"color",
"alpha":1,
"blue":0,
"green":0,
"red":0
}
}
]
},
"noiseIndex":0,
"noiseIntensity":0,
"patternFillType":1,
"patternTileScale":1
}
],
"innerShadows":[],
"shadows":[]
}
},
{
"_class":"sharedStyle",
"do_objectID":"235B17E8-3F09-4915-AF8F-8959105E6CFD",
"name":"Sketch Measure / Size",
"value":{
"_class":"style",
"do_objectID":"969D1489-DDB5-4DEC-BF79-5E86FEA99C6B",
"endMarkerType":0,
"miterLimit":10,
"startMarkerType":0,
"windingRule":1,
"blur":{
"_class":"blur",
"isEnabled":false,
"center":"{0.5, 0.5}",
"motionAngle":0,
"radius":10,
"saturation":1,
"type":0
},
"borderOptions":{
"_class":"borderOptions",
"isEnabled":true,
"dashPattern":[],
"lineCapStyle":0,
"lineJoinStyle":0
},
"borders":[],
"colorControls":{
"_class":"colorControls",
"isEnabled":false,
"brightness":0,
"contrast":1,
"hue":0,
"saturation":1
},
"contextSettings":{
"_class":"graphicsContextSettings",
"blendMode":0,
"opacity":1
},
"fills":[
{
"_class":"fill",
"isEnabled":true,
"fillType":0,
"color":{
"_class":"color",
"alpha":1,
"blue":0,
"green":0.333333,
"red":1
},
"contextSettings":{
"_class":"graphicsContextSettings",
"blendMode":0,
"opacity":1
},
"gradient":{
"_class":"gradient",
"elipseLength":0,
"from":"{0.5, 0}",
"gradientType":0,
"to":"{0.5, 1}",
"stops":[
{
"_class":"gradientStop",
"position":0,
"color":{
"_class":"color",
"alpha":1,
"blue":1,
"green":1,
"red":1
}
},
{
"_class":"gradientStop",
"position":1,
"color":{
"_class":"color",
"alpha":1,
"blue":0,
"green":0,
"red":0
}
}
]
},
"noiseIndex":0,
"noiseIntensity":0,
"patternFillType":1,
"patternTileScale":1
}
],
"innerShadows":[],
"shadows":[]
}
},
{
"_class":"sharedStyle",
"do_objectID":"8B84A715-1BB8-4269-9BA0-F68EF627EBC7",
"name":"Sketch Measure / Overlay",
"value":{
"_class":"style",
"do_objectID":"C67155BC-EF88-42FB-929D-D73173BFCC19",
"endMarkerType":0,
"miterLimit":10,
"startMarkerType":0,
"windingRule":1,
"blur":{
"_class":"blur",
"isEnabled":false,
"center":"{0.5, 0.5}",
"motionAngle":0,
"radius":10,
"saturation":1,
"type":0
},
"borderOptions":{
"_class":"borderOptions",
"isEnabled":true,
"dashPattern":[],
"lineCapStyle":0,
"lineJoinStyle":0
},
"borders":[],
"colorControls":{
"_class":"colorControls",
"isEnabled":false,
"brightness":0,
"contrast":1,
"hue":0,
"saturation":1
},
"contextSettings":{
"_class":"graphicsContextSettings",
"blendMode":0,
"opacity":1
},
"fills":[
{
"_class":"fill",
"isEnabled":true,
"fillType":0,
"color":{
"_class":"color",
"alpha":0.3,
"blue":0,
"green":0.333333,
"red":1
},
"contextSettings":{
"_class":"graphicsContextSettings",
"blendMode":0,
"opacity":1
},
"gradient":{
"_class":"gradient",
"elipseLength":0,
"from":"{0.5, 0}",
"gradientType":0,
"to":"{0.5, 1}",
"stops":[
{
"_class":"gradientStop",
"position":0,
"color":{
"_class":"color",
"alpha":1,
"blue":1,
"green":1,
"red":1
}
},
{
"_class":"gradientStop",
"position":1,
"color":{
"_class":"color",
"alpha":1,
"blue":0,
"green":0,
"red":0
}
}
]
},
"noiseIndex":0,
"noiseIntensity":0,
"patternFillType":1,
"patternTileScale":1
}
],
"innerShadows":[],
"shadows":[]
}
},
{
"_class":"sharedStyle",
"do_objectID":"6F0DB186-8A9B-4233-9F5A-359E26004D35",
"name":"color/中性色/文字/02_#2D303B-70%",
"value":{
"_class":"style",
"do_objectID":"6BDC9090-A546-4AF8-80FA-C22A805E2AC6",
"endMarkerType":0,
"miterLimit":10,
"startMarkerType":0,
"windingRule":1,
"blur":{
"_class":"blur",
"isEnabled":false,
"center":"{0.5, 0.5}",
"motionAngle":0,
"radius":10,
"saturation":1,
"type":0
},
"borderOptions":{
"_class":"borderOptions",
"isEnabled":true,
"dashPattern":[],
"lineCapStyle":0,
"lineJoinStyle":0
},
"borders":[
{
"_class":"border",
"isEnabled":false,
"fillType":0,
"color":{
"_class":"color",
"alpha":1,
"blue":0.592,
"green":0.592,
"red":0.592
},
"contextSettings":{
"_class":"graphicsContextSettings",
"blendMode":0,
"opacity":1
},
"gradient":{
"_class":"gradient",
"elipseLength":0,
"from":"{0.5, 0}",
"gradientType":0,
"to":"{0.5, 1}",
"stops":[
{
"_class":"gradientStop",
"position":0,
"color":{
"_class":"color",
"alpha":1,
"blue":1,
"green":1,
"red":1
}
},
{
"_class":"gradientStop",
"position":1,
"color":{
"_class":"color",
"alpha":1,
"blue":0,
"green":0,
"red":0
}
}
]
},
"position":0,
"thickness":1
}
],
"colorControls":{
"_class":"colorControls",
"isEnabled":false,
"brightness":0,
"contrast":1,
"hue":0,
"saturation":1
},
"contextSettings":{
"_class":"graphicsContextSettings",
"blendMode":0,
"opacity":0.699999988079071
},
"fills":[
{
"_class":"fill",
"isEnabled":true,
"fillType":0,
"color":{
"_class":"color",
"alpha":1,
"blue":0.2313725490196079,
"green":0.188235294117647,
"red":0.1764705882352941
},
"contextSettings":{
"_class":"graphicsContextSettings",
"blendMode":0,
"opacity":1
},
"gradient":{
"_class":"gradient",
"elipseLength":0,
"from":"{0.5, 0}",
"gradientType":0,
"to":"{0.5, 1}",
"stops":[
{
"_class":"gradientStop",
"position":0,
"color":{
"_class":"color",
"alpha":1,
"blue":1,
"green":1,
"red":1
}
},
{
"_class":"gradientStop",
"position":1,
"color":{
"_class":"color",
"alpha":1,
"blue":0,
"green":0,
"red":0
}
}
]
},
"noiseIndex":0,
"noiseIntensity":0,
"patternFillType":1,
"patternTileScale":1
}
],
"innerShadows":[],
"shadows":[]
}
},
{
"_class":"sharedStyle",
"do_objectID":"36865280-0672-480B-B7DC-489849AB1B98",
"name":"Border/#CAD1E8/all",
"value":{
"_class":"style",
"do_objectID":"CC0010B6-978C-4FB7-A794-33EE20180BCD",
"endMarkerType":0,
"miterLimit":10,
"startMarkerType":0,
"windingRule":1,
"blur":{
"_class":"blur",
"isEnabled":false,
"center":"{0.5, 0.5}",
"motionAngle":0,
"radius":10,
"saturation":1,
"type":0
},
"borderOptions":{
"_class":"borderOptions",
"isEnabled":true,
"dashPattern":[],
"lineCapStyle":0,
"lineJoinStyle":0
},
"borders":[
{
"_class":"border",
"isEnabled":true,
"fillType":0,
"color":{
"_class":"color",
"alpha":1,
"blue":0.9098039215686274,
"green":0.8196078431372549,
"red":0.792156862745098
},
"contextSettings":{
"_class":"graphicsContextSettings",
"blendMode":0,
"opacity":1
},
"gradient":{
"_class":"gradient",
"elipseLength":0,
"from":"{0.5, 0}",
"gradientType":0,
"to":"{0.5, 1}",
"stops":[
{
"_class":"gradientStop",
"position":0,
"color":{
"_class":"color",
"alpha":1,
"blue":1,
"green":1,
"red":1
}
},
{
"_class":"gradientStop",
"position":1,
"color":{
"_class":"color",
"alpha":1,
"blue":0,
"green":0,
"red":0
}
}
]
},
"position":1,
"thickness":1
}
],
"colorControls":{
"_class":"colorControls",
"isEnabled":false,
"brightness":0,
"contrast":1,
"hue":0,
"saturation":1
},
"contextSettings":{
"_class":"graphicsContextSettings",
"blendMode":0,
"opacity":1
},
"fills":[],
"innerShadows":[],
"shadows":[]
}
},
{
"_class":"sharedStyle",
"do_objectID":"0045D9EE-A293-4546-A6CA-348D7ECE7384",
"name":"Border/#CAD1E8/all fill",
"value":{
"_class":"style",
"do_objectID":"0C3EB642-90A1-4AE7-89E7-80B29F2594CB",
"endMarkerType":0,
"miterLimit":10,
"startMarkerType":0,
"windingRule":1,
"blur":{
"_class":"blur",
"isEnabled":false,
"center":"{0.5, 0.5}",
"motionAngle":0,
"radius":10,
"saturation":1,
"type":0
},
"borderOptions":{
"_class":"borderOptions",
"isEnabled":true,
"dashPattern":[],
"lineCapStyle":0,
"lineJoinStyle":0
},
"borders":[
{
"_class":"border",
"isEnabled":true,
"fillType":0,
"color":{
"_class":"color",
"alpha":1,
"blue":0.9098039215686274,
"green":0.8196078431372549,
"red":0.792156862745098
},
"contextSettings":{
"_class":"graphicsContextSettings",
"blendMode":0,
"opacity":1
},
"gradient":{
"_class":"gradient",
"elipseLength":0,
"from":"{0.5, 0}",
"gradientType":0,
"to":"{0.5, 1}",
"stops":[
{
"_class":"gradientStop",
"position":0,
"color":{
"_class":"color",
"alpha":1,
"blue":1,
"green":1,
"red":1
}
},
{
"_class":"gradientStop",
"position":1,
"color":{
"_class":"color",
"alpha":1,
"blue":0,
"green":0,
"red":0
}
}
]
},
"position":1,
"thickness":1
}
],
"colorControls":{
"_class":"colorControls",
"isEnabled":false,
"brightness":0,
"contrast":1,
"hue":0,
"saturation":1
},
"contextSettings":{
"_class":"graphicsContextSettings",
"blendMode":0,
"opacity":1
},
"fills":[
{
"_class":"fill",
"isEnabled":true,
"fillType":0,
"color":{
"_class":"color",
"alpha":1,
"blue":0.9764705882352941,
"green":0.9647058823529412,
"red":0.9607843137254902
},
"contextSettings":{
"_class":"graphicsContextSettings",
"blendMode":0,
"opacity":1
},
"gradient":{
"_class":"gradient",
"elipseLength":0,
"from":"{0.5, 0}",
"gradientType":0,
"to":"{0.5, 1}",
"stops":[
{
"_class":"gradientStop",
"position":0,
"color":{
"_class":"color",
"alpha":1,
"blue":1,
"green":1,
"red":1
}
},
{
"_class":"gradientStop",
"position":1,
"color":{
"_class":"color",
"alpha":1,
"blue":0,
"green":0,
"red":0
}
}
]
},
"noiseIndex":0,
"noiseIntensity":0,
"patternFillType":1,
"patternTileScale":1
}
],
"innerShadows":[],
"shadows":[]
}
}
]
},
"layerSymbols":{
"_class":"symbolContainer",
"objects":[]
},
"layerTextStyles":{
"_class":"sharedTextStyleContainer",
"objects":[
{
"_class":"sharedStyle",
"do_objectID":"C988E8AD-181D-48B5-BFCA-3F6CC5B99E41",
"name":"Sketch Measure / Spacing",
"value":{
"_class":"style",
"do_objectID":"5CFF2F63-E152-42C4-BBE8-7578DE107250",
"endMarkerType":0,
"miterLimit":10,
"startMarkerType":0,
"windingRule":1,
"blur":{
"_class":"blur",
"isEnabled":false,
"center":"{0.5, 0.5}",
"motionAngle":0,
"radius":10,
"saturation":1,
"type":0
},
"borderOptions":{
"_class":"borderOptions",
"isEnabled":true,
"dashPattern":[],
"lineCapStyle":0,
"lineJoinStyle":0
},
"borders":[],
"colorControls":{
"_class":"colorControls",
"isEnabled":false,
"brightness":0,
"contrast":1,
"hue":0,
"saturation":1
},
"contextSettings":{
"_class":"graphicsContextSettings",
"blendMode":0,
"opacity":1
},
"fills":[],
"innerShadows":[],
"shadows":[],
"textStyle":{
"_class":"textStyle",
"encodedAttributes":{
"MSAttributedStringColorAttribute":{
"_class":"color",
"alpha":1,
"blue":1,
"green":1,
"red":1
},
"MSAttributedStringFontAttribute":{
"_class":"fontDescriptor",
"attributes":{
"name":"HelveticaNeue",
"size":12
}
}
},
"verticalAlignment":0
}
}
},
{
"_class":"sharedStyle",
"do_objectID":"728366EC-932E-467B-B668-BC5969B615BA",
"name":"Sketch Measure / Size",
"value":{
"_class":"style",
"do_objectID":"56BE6262-765E-4E6A-A827-CE8546C7089A",
"endMarkerType":0,
"miterLimit":10,
"startMarkerType":0,
"windingRule":1,
"blur":{
"_class":"blur",
"isEnabled":false,
"center":"{0.5, 0.5}",
"motionAngle":0,
"radius":10,
"saturation":1,
"type":0
},
"borderOptions":{
"_class":"borderOptions",
"isEnabled":true,
"dashPattern":[],
"lineCapStyle":0,
"lineJoinStyle":0
},
"borders":[],
"colorControls":{
"_class":"colorControls",
"isEnabled":false,
"brightness":0,
"contrast":1,
"hue":0,
"saturation":1
},
"contextSettings":{
"_class":"graphicsContextSettings",
"blendMode":0,
"opacity":1
},
"fills":[],
"innerShadows":[],
"shadows":[],
"textStyle":{
"_class":"textStyle",
"encodedAttributes":{
"MSAttributedStringColorAttribute":{
"_class":"color",
"alpha":1,
"blue":1,
"green":1,
"red":1
},
"MSAttributedStringFontAttribute":{
"_class":"fontDescriptor",
"attributes":{
"name":"HelveticaNeue",
"size":12
}
}
},
"verticalAlignment":0
}
}
},
{
"_class":"sharedStyle",
"do_objectID":"D1C4605E-12EE-4598-A459-E8E8E89BA9FE",
"name":"14/#2D303B/居中/常规",
"value":{
"_class":"style",
"do_objectID":"36AFC976-C396-42D2-846A-BE72F3EF2DA4",
"endMarkerType":0,
"miterLimit":10,
"startMarkerType":0,
"windingRule":1,
"blur":{
"_class":"blur",
"isEnabled":false,
"center":"{0.5, 0.5}",
"motionAngle":0,
"radius":10,
"saturation":1,
"type":0
},
"borderOptions":{
"_class":"borderOptions",
"isEnabled":true,
"dashPattern":[],
"lineCapStyle":0,
"lineJoinStyle":0
},
"borders":[],
"colorControls":{
"_class":"colorControls",
"isEnabled":false,
"brightness":0,
"contrast":1,
"hue":0,
"saturation":1
},
"contextSettings":{
"_class":"graphicsContextSettings",
"blendMode":0,
"opacity":1
},
"fills":[],
"innerShadows":[],
"shadows":[],
"textStyle":{
"_class":"textStyle",
"encodedAttributes":{
"MSAttributedStringFontAttribute":{
"_class":"fontDescriptor",
"attributes":{
"name":"PingFangSC-Regular",
"size":14
}
},
"MSAttributedStringColorAttribute":{
"_class":"color",
"alpha":1,
"blue":0.2313725490196079,
"green":0.1882352941176471,
"red":0.1764705882352941
},
"textStyleVerticalAlignmentKey":0,
"paragraphStyle":{
"_class":"paragraphStyle",
"alignment":2
}
},
"verticalAlignment":0
}
}
}
]
},
"pages":[
{
"_class":"MSJSONFileReference",
"_ref_class":"MSImmutablePage",
"_ref":"pages/26905035-A8D1-4C45-A066-426E77BF6A6A"
},
{
"_class":"MSJSONFileReference",
"_ref_class":"MSImmutablePage",
"_ref":"pages/FD0F8B5A-FFDC-47F9-AF54-96C6E7940C05"
},
{
"_class":"MSJSONFileReference",
"_ref_class":"MSImmutablePage",
"_ref":"pages/CF78D149-5EB5-45AB-BB14-C9B512386CA0"
},
{
"_class":"MSJSONFileReference",
"_ref_class":"MSImmutablePage",
"_ref":"pages/3FF5DCBF-78FF-4564-BC9C-0AEB1860CE47"
},
{
"_class":"MSJSONFileReference",
"_ref_class":"MSImmutablePage",
"_ref":"pages/C9520295-5CA6-425E-97A4-066B12F8EE07"
},
{
"_class":"MSJSONFileReference",
"_ref_class":"MSImmutablePage",
"_ref":"pages/BC5C9E04-1C9B-42C8-8FB6-AA5313473887"
},
{
"_class":"MSJSONFileReference",
"_ref_class":"MSImmutablePage",
"_ref":"pages/5DDF8111-583C-4F1F-BBFB-030CF32EF39E"
},
{
"_class":"MSJSONFileReference",
"_ref_class":"MSImmutablePage",
"_ref":"pages/88664F33-7F96-410B-AB35-9F40C84E9663"
},
{
"_class":"MSJSONFileReference",
"_ref_class":"MSImmutablePage",
"_ref":"pages/D603D029-C960-45EB-91AD-A0D8418FAF4A"
},
{
"_class":"MSJSONFileReference",
"_ref_class":"MSImmutablePage",
"_ref":"pages/6611B122-A2E4-43EE-B24D-C893E3D9B0F3"
},
{
"_class":"MSJSONFileReference",
"_ref_class":"MSImmutablePage",
"_ref":"pages/A0F0E603-5371-4FDE-BC8D-F9245321D2A4"
},
{
"_class":"MSJSONFileReference",
"_ref_class":"MSImmutablePage",
"_ref":"pages/633E5AB7-469C-49AE-8719-99AE9AA7FDB3"
},
{
"_class":"MSJSONFileReference",
"_ref_class":"MSImmutablePage",
"_ref":"pages/6B444A91-028C-4328-B4DA-D42131B4C9E5"
},
{
"_class":"MSJSONFileReference",
"_ref_class":"MSImmutablePage",
"_ref":"pages/47684B06-581F-43F6-97A5-EF22886D11B2"
}
]
}